<?xml version="1.0" standalone="no"?>
<!DOCTYPE svg PUBLIC "-//W3C//DTD SVG 20010904//EN"
 "http://www.w3.org/TR/2001/REC-SVG-20010904/DTD/svg10.dtd">
<svg version="1.0" xmlns="http://www.w3.org/2000/svg"
 width="5000.000000pt" height="5000.000000pt" viewBox="0 0 5000.000000 5000.000000"
 preserveAspectRatio="xMidYMid meet">
<metadata>
Created by potrace 1.12, written by Peter Selinger 2001-2015
</metadata>
<g transform="translate(0.000000,5000.000000) scale(0.100000,-0.100000)"
fill="#000000" stroke="none">
<path d="M12132 30313 c-34 -408 -39 -949 -12 -1354 79 -1172 354 -2328 850
-3569 355 -888 775 -1710 1870 -3662 l44 -78 620 -2 620 -3 209 -370 c611
-1082 963 -1727 1287 -2359 106 -207 146 -276 157 -272 8 3 23 6 34 6 17 0 19
8 19 89 l0 90 58 11 c84 16 82 15 82 63 l0 43 58 11 c31 6 110 21 175 34 l117
23 0 43 c0 24 2 43 4 43 2 0 78 14 169 30 92 17 169 30 172 30 3 0 5 35 5 79
l0 79 115 18 c63 10 119 20 125 24 5 3 21 49 34 102 78 306 225 478 461 538
100 25 279 27 374 4 134 -33 268 -124 342 -233 32 -47 36 -50 69 -45 80 12 80
12 80 49 0 19 3 35 8 35 4 0 65 9 136 20 71 11 130 20 132 20 2 0 4 15 4 34 0
34 0 34 63 44 126 21 392 61 405 62 7 0 12 13 12 33 l0 33 233 33 c127 18 318
46 422 61 105 16 226 33 270 40 128 18 125 17 125 49 0 33 -33 25 348 77 l202
28 0 26 0 26 213 28 c588 76 557 70 557 100 0 21 6 24 93 34 50 6 142 18 202
26 133 19 515 66 533 66 6 0 12 10 12 23 0 21 6 23 198 46 108 13 280 33 382
46 740 90 670 80 670 100 0 17 4 17 250 45 102 11 241 27 310 35 69 8 220 24
337 37 172 18 213 25 216 38 3 13 32 19 143 29 76 7 166 16 199 21 86 14 783
89 823 90 12 0 22 6 22 13 0 9 49 18 183 30 100 10 263 26 362 37 99 10 281
28 405 41 124 12 227 26 230 30 3 4 179 24 390 44 567 53 1248 117 1425 135
114 12 688 62 1379 120 258 22 470 41 471 43 5 5 289 513 477 852 363 655 678
1244 876 1640 765 1530 1220 2977 1371 4365 65 596 74 1344 23 1868 l-7 67
-11616 3 -11616 2 -11 -137z m11516 -1523 c41 -13 71 -28 69 -34 -3 -6 -13
-35 -23 -63 -10 -29 -23 -53 -29 -53 -5 0 -37 9 -70 19 -141 44 -240 34 -283
-29 -18 -27 -23 -44 -19 -74 8 -60 52 -96 188 -156 189 -83 251 -152 251 -279
0 -74 -12 -110 -48 -159 -35 -45 -93 -80 -167 -98 -81 -21 -259 -15 -337 12
l-55 19 -3 77 -3 76 68 -23 c89 -31 196 -48 254 -40 97 13 153 80 130 157 -15
49 -53 77 -180 133 -192 83 -255 156 -255 290 0 124 59 199 189 242 64 21 234
12 323 -17z m2482 -1 c36 -12 66 -23 68 -24 2 -2 -38 -116 -45 -124 -1 -2 -35
6 -75 17 -103 30 -165 36 -218 20 -92 -28 -117 -124 -50 -193 20 -21 75 -52
151 -85 189 -83 251 -152 251 -279 0 -74 -12 -110 -48 -159 -35 -45 -93 -80
-167 -98 -81 -21 -259 -15 -337 12 l-55 19 -3 78 -3 77 50 -20 c80 -31 206
-53 265 -46 103 13 160 79 137 158 -15 49 -53 77 -180 133 -192 83 -255 156
-255 290 0 124 59 198 189 242 61 20 243 10 325 -18z m-4565 -1 c2 -13 28
-115 56 -228 28 -113 66 -272 84 -355 l32 -150 12 60 c7 33 51 202 99 375 l87
315 81 3 80 3 87 -308 c48 -169 94 -339 101 -378 10 -54 15 -64 19 -45 4 14
23 95 42 180 33 141 101 418 126 513 l10 37 80 0 c63 0 80 -3 77 -14 -2 -7
-57 -221 -123 -475 l-120 -461 -87 0 -87 0 -20 68 c-67 227 -161 567 -172 622
l-13 65 -17 -84 c-10 -46 -55 -215 -100 -377 l-82 -294 -87 0 -87 0 -42 163
c-24 89 -78 298 -122 465 -43 166 -79 307 -79 312 0 6 35 10 80 10 74 0 80 -1
85 -22z m1365 -453 l0 -475 -80 0 -80 0 0 475 0 475 80 0 80 0 0 -475z m1140
280 l0 -195 220 0 220 0 0 195 0 195 80 0 80 0 0 -475 0 -475 -80 0 -80 0 0
215 0 215 -220 0 -220 0 0 -215 0 -215 -80 0 -80 0 0 475 0 475 80 0 80 0 0
-195z m1380 130 l0 -65 -190 0 -190 0 0 -130 0 -130 180 0 180 0 0 -65 0 -65
-180 0 -180 0 0 -150 0 -150 190 0 190 0 0 -65 0 -65 -270 0 -270 0 0 475 0
475 270 0 270 0 0 -65z m880 -1710 l0 -315 -29 0 c-23 0 -30 5 -35 26 l-7 27
-22 -20 c-36 -33 -63 -43 -117 -43 -117 0 -183 83 -183 230 0 149 67 230 188
230 50 0 77 -10 113 -43 l22 -20 0 121 0 122 35 0 35 0 0 -315z m-4750 55 c0
-245 4 -266 63 -297 44 -24 144 -24 180 0 59 38 62 51 65 294 l3 223 35 0 35
0 -3 -234 -3 -234 -30 -43 c-45 -64 -92 -84 -195 -84 -107 0 -152 21 -195 90
l-30 48 -3 229 -4 228 41 0 41 0 0 -220z m3650 120 l0 -50 60 0 c57 0 60 -1
60 -25 0 -24 -3 -25 -60 -25 l-60 0 0 -155 c0 -154 0 -155 25 -171 18 -12 36
-15 65 -10 39 6 40 5 40 -23 0 -34 -13 -41 -80 -41 -59 0 -104 33 -120 88 -5
20 -10 99 -10 175 l0 137 -30 0 c-41 0 -39 26 4 47 27 13 37 25 45 59 10 37
15 44 36 44 23 0 25 -3 25 -50z m2250 0 l0 -50 60 0 c57 0 60 -1 60 -25 0 -24
-3 -25 -60 -25 l-60 0 0 -155 c0 -154 0 -155 25 -171 18 -12 36 -15 65 -10 39
6 40 5 40 -23 0 -34 -13 -41 -80 -41 -59 0 -104 33 -120 88 -5 20 -10 99 -10
175 l0 137 -30 0 c-41 0 -39 26 4 47 27 13 37 25 45 59 10 37 15 44 36 44 23
0 25 -3 25 -50z m-10375 -20 c157 -49 280 -139 337 -246 45 -83 61 -164 60
-299 -1 -248 -72 -444 -221 -608 -73 -81 -91 -114 -91 -167 0 -86 45 -131 187
-185 284 -109 551 -283 604 -392 46 -94 22 -206 -58 -272 -71 -59 -253 -116
-464 -146 -191 -27 -537 -39 -786 -26 -359 18 -567 56 -719 131 -205 100 -227
242 -61 396 114 107 278 205 487 289 161 65 194 86 219 138 12 24 21 53 21 65
0 40 -29 93 -81 150 -104 114 -170 233 -209 378 -30 111 -38 323 -16 418 46
195 191 327 422 386 105 26 266 22 369 -10z m5226 -31 c19 -7 38 -15 42 -19
12 -10 -15 -62 -29 -56 -73 28 -160 30 -191 4 -20 -16 -15 -55 8 -72 12 -8 57
-29 101 -47 119 -48 155 -108 112 -190 -31 -60 -162 -88 -265 -57 -36 10 -39
14 -39 46 0 24 4 33 13 29 7 -2 39 -10 71 -17 94 -19 166 4 166 55 0 30 -25
51 -101 81 -35 14 -78 34 -95 45 -79 48 -68 156 20 195 38 16 141 18 187 3z
m435 -14 c50 -30 79 -84 89 -167 l7 -58 -156 0 c-150 0 -156 -1 -156 -20 0
-35 26 -85 53 -103 40 -26 97 -31 166 -13 34 9 65 16 67 16 3 0 4 -14 2 -32
-2 -26 -9 -34 -38 -44 -44 -16 -159 -18 -197 -3 -39 14 -101 77 -112 113 -29
93 -16 206 30 264 57 74 164 95 245 47z m692 4 c146 -71 145 -353 -1 -420 -47
-21 -130 -25 -174 -8 -34 13 -80 55 -99 91 -42 81 -38 206 10 279 50 75 172
102 264 58z m1002 9 c-1 -44 -11 -56 -48 -51 -28 4 -46 -1 -72 -19 -60 -40
-70 -74 -70 -230 l0 -138 -35 0 -35 0 0 220 0 220 30 0 c27 0 30 -3 30 -30 0
-34 11 -38 31 -13 27 33 74 53 122 53 31 0 47 -4 47 -12z m552 -6 c25 -10 26
-13 16 -42 -6 -19 -15 -29 -24 -26 -73 28 -160 30 -191 4 -7 -6 -13 -21 -13
-34 0 -28 34 -52 120 -84 82 -31 120 -66 127 -116 12 -89 -55 -143 -176 -144
-35 0 -81 5 -102 12 -36 10 -39 14 -39 46 0 29 3 33 18 27 9 -4 44 -12 77 -17
81 -14 142 2 151 39 12 46 0 55 -149 123 -72 33 -97 64 -97 118 0 36 33 80 74
98 36 16 165 14 208 -4z m1960 -11 c49 -34 76 -78 89 -144 23 -113 -21 -226
-103 -266 -49 -23 -128 -28 -175 -10 -91 34 -143 151 -123 275 19 118 93 178
211 172 50 -3 75 -9 101 -27z m1010 0 c49 -34 76 -78 89 -144 23 -113 -21
-226 -103 -266 -49 -23 -128 -28 -175 -10 -91 34 -143 151 -123 275 19 118 93
178 211 172 50 -3 75 -9 101 -27z m-4222 -151 c0 -155 2 -172 19 -189 46 -46
143 -34 185 22 19 25 21 44 24 183 l4 154 34 0 34 0 0 -220 0 -220 -29 0 c-23
0 -30 5 -35 26 l-7 27 -22 -20 c-37 -34 -63 -43 -124 -43 -65 0 -110 22 -140
67 -15 23 -19 54 -21 205 l-4 178 41 0 41 0 0 -170z m1760 4 c0 -91 4 -174 10
-184 24 -45 139 -49 179 -6 33 35 41 79 41 223 l0 133 35 0 35 0 0 -220 0
-220 -29 0 c-23 0 -30 5 -35 26 l-7 27 -22 -21 c-52 -48 -160 -58 -218 -19
-57 38 -63 63 -67 255 l-4 172 41 0 41 0 0 -166z m1020 -54 l0 -220 -35 0 -35
0 0 220 0 220 35 0 35 0 0 -220z m3965 115 c289 -60 470 -305 537 -725 21
-133 18 -577 -5 -712 -26 -153 -52 -240 -102 -343 -83 -169 -188 -266 -350
-321 -97 -32 -254 -43 -361 -25 -290 51 -475 276 -548 669 -27 141 -38 377
-26 557 11 184 28 291 65 420 76 262 246 435 470 479 93 19 234 19 320 1z
m1730 -19 c217 -59 369 -208 411 -404 40 -192 -5 -379 -140 -582 -71 -107
-217 -260 -620 -651 l-149 -144 497 -3 496 -2 0 -150 0 -150 -705 0 -705 0 0
134 0 134 243 237 c295 290 542 548 608 635 143 190 185 381 115 524 -47 97
-126 142 -261 153 -135 10 -285 -40 -441 -148 -41 -29 -76 -50 -78 -48 -43 44
-173 215 -169 222 15 25 177 134 257 172 81 39 194 75 281 88 63 10 301 -1
360 -17z m-16648 -380 c135 -36 242 -115 288 -212 68 -143 45 -408 -49 -567
-14 -24 -44 -68 -68 -96 -74 -90 -88 -113 -88 -145 0 -51 34 -94 96 -123 l56
-25 -71 -72 c-85 -86 -115 -146 -114 -231 0 -115 78 -216 215 -280 l71 -32
-39 -6 c-21 -3 -128 -11 -236 -18 -323 -20 -657 6 -848 67 -224 70 -274 211
-123 343 99 88 216 154 428 243 87 36 125 76 125 130 0 38 -11 57 -80 139
-109 131 -160 276 -160 459 0 161 30 243 120 324 45 41 123 81 199 102 62 17
214 17 278 0z m2836 -171 c248 -52 359 -221 318 -483 -21 -137 -67 -235 -162
-347 -42 -49 -49 -63 -49 -100 0 -56 34 -91 121 -124 156 -59 325 -158 396
-233 63 -67 62 -163 -2 -224 -102 -96 -495 -151 -902 -125 -103 6 -203 15
-222 19 l-34 7 76 38 c130 64 187 152 187 286 0 76 -27 144 -81 206 -23 26
-30 40 -21 43 31 10 72 56 78 87 9 47 0 67 -62 138 -110 126 -159 270 -152
450 3 83 8 112 30 159 47 101 148 174 282 203 80 18 117 18 199 0z m4397 -177
l0 -121 23 20 c36 33 63 43 119 43 67 0 116 -24 143 -70 17 -31 20 -57 24
-207 l3 -173 -41 0 -41 0 0 160 c0 185 -6 205 -63 222 -50 15 -111 -4 -141
-45 -19 -25 -21 -45 -24 -183 l-4 -154 -34 0 -34 0 0 315 0 315 35 0 35 0 0
-122z m2720 -193 l0 -315 -35 0 -35 0 0 315 0 315 35 0 35 0 0 -315z m1900 0
l0 -315 -29 0 c-23 0 -30 5 -35 26 l-7 27 -22 -20 c-36 -33 -63 -43 -117 -43
-117 0 -183 83 -183 230 0 149 67 230 188 230 50 0 77 -10 113 -43 l22 -20 0
121 0 122 35 0 35 0 0 -315z m-4849 124 c19 -7 38 -15 42 -19 12 -10 -15 -62
-29 -56 -73 28 -160 30 -191 4 -20 -16 -15 -55 8 -72 12 -8 57 -29 101 -47
119 -48 155 -108 112 -190 -31 -60 -162 -88 -265 -57 -36 10 -39 14 -39 46 0
24 4 33 13 29 7 -2 39 -10 71 -17 94 -19 166 4 166 55 0 30 -25 51 -101 81
-35 14 -78 34 -95 45 -79 48 -68 156 20 195 38 16 141 18 187 3z m1587 -10
c146 -71 145 -353 -1 -420 -47 -21 -130 -25 -174 -8 -34 13 -80 55 -99 91 -42
81 -38 206 10 279 50 75 172 102 264 58z m998 -1 c-3 -13 -6 -28 -6 -35 0 -7
-13 -9 -37 -6 -29 4 -46 -1 -73 -19 -60 -40 -70 -74 -70 -230 l0 -138 -35 0
-35 0 0 220 0 220 30 0 c27 0 30 -3 30 -30 0 -34 11 -38 31 -13 28 33 74 53
123 53 45 0 48 -1 42 -22z m796 -7 c49 -34 76 -78 89 -144 23 -113 -21 -226
-103 -266 -49 -23 -128 -28 -175 -10 -91 34 -143 151 -123 275 19 118 93 178
211 172 50 -3 75 -9 101 -27z m876 15 c36 -19 78 -65 91 -99 6 -16 11 -53 11
-83 l0 -54 -151 0 -152 0 6 -37 c14 -85 79 -123 182 -105 33 6 70 14 83 18 22
6 23 4 20 -26 -2 -28 -9 -35 -38 -46 -56 -20 -164 -17 -208 5 -80 41 -114 104
-114 209 0 142 75 232 194 232 27 0 61 -6 76 -14z m-5290 -173 l45 -173 53
168 c29 92 54 171 54 175 0 5 19 7 42 5 l41 -3 23 -70 c13 -38 37 -116 55
-173 l32 -103 39 148 c21 81 41 160 44 176 6 24 11 27 45 27 l38 0 -23 -82
c-13 -46 -40 -145 -61 -220 l-38 -138 -43 0 -43 0 -45 143 c-24 78 -49 157
-53 176 -9 33 -11 29 -47 -85 -20 -65 -45 -144 -55 -174 l-18 -55 -43 0 -43 0
-59 210 c-32 116 -58 214 -58 218 0 5 17 7 37 5 l37 -3 44 -172z m652 -43 l0
-220 -35 0 -35 0 0 220 0 220 35 0 35 0 0 -220z m1339 53 c35 -93 65 -175 68
-183 2 -8 33 66 69 164 35 98 66 181 68 183 2 2 20 3 39 1 l36 -3 -104 -273
c-57 -149 -113 -286 -125 -302 -31 -44 -72 -62 -133 -58 -50 3 -52 4 -52 33 0
28 2 30 35 27 51 -4 92 26 117 85 l21 50 -89 219 c-49 120 -89 219 -89 221 0
2 17 3 38 3 l39 0 62 -167z m921 -3 c0 -155 2 -172 19 -189 46 -46 143 -34
185 22 19 25 21 44 24 183 l4 154 34 0 34 0 0 -220 0 -220 -29 0 c-23 0 -30 5
-35 26 l-7 27 -22 -20 c-37 -34 -63 -43 -124 -43 -65 0 -110 22 -140 67 -15
23 -19 54 -21 205 l-4 178 41 0 41 0 0 -170z m1759 78 c18 -51 48 -135 66
-185 l32 -93 62 173 c34 95 66 179 70 186 5 7 22 11 43 9 l34 -3 -82 -215 -82
-215 -44 -3 -43 -3 -80 212 c-44 116 -81 215 -83 220 -2 5 14 9 35 9 l38 0 34
-92z m-4451 -829 c146 -71 145 -353 -1 -420 -47 -21 -130 -25 -174 -8 -34 13
-80 55 -99 91 -42 81 -38 206 10 279 50 75 172 102 264 58z m539 -5 c50 -37
57 -65 61 -251 l4 -173 -41 0 -41 0 0 160 c0 185 -6 205 -63 222 -50 15 -111
-4 -141 -45 -19 -25 -21 -45 -24 -183 l-4 -154 -34 0 -34 0 0 220 0 220 29 0
c23 0 30 -5 35 -26 l7 -27 22 20 c41 37 61 44 129 40 49 -2 75 -8 95 -23z
m459 1 c50 -30 79 -84 89 -167 l7 -58 -156 0 c-150 0 -156 -1 -156 -20 0 -35
26 -85 53 -103 40 -26 97 -31 166 -13 34 9 65 16 67 16 3 0 4 -14 2 -32 -2
-26 -9 -34 -38 -44 -44 -16 -159 -18 -197 -3 -39 14 -101 77 -112 113 -29 93
-16 206 30 264 57 74 164 95 245 47z m435 14 c19 -7 38 -15 42 -19 12 -10 -15
-62 -29 -56 -73 28 -160 30 -191 4 -20 -16 -15 -55 8 -72 12 -8 57 -29 101
-47 119 -48 155 -108 112 -190 -31 -60 -162 -88 -265 -57 -36 10 -39 14 -39
46 0 24 4 33 13 29 7 -2 39 -10 71 -17 94 -19 166 4 166 55 0 30 -25 51 -101
81 -35 14 -78 34 -95 45 -79 48 -68 156 20 195 38 16 141 18 187 3z m1120 0
c19 -7 38 -15 42 -19 12 -10 -15 -62 -29 -56 -73 28 -160 30 -191 4 -20 -16
-15 -55 8 -72 12 -8 57 -29 101 -47 119 -48 155 -108 112 -190 -31 -60 -162
-88 -265 -57 -36 10 -39 14 -39 46 0 24 4 33 13 29 7 -2 39 -10 71 -17 94 -19
166 4 166 55 0 30 -25 51 -101 81 -35 14 -78 34 -95 45 -79 48 -68 156 20 195
38 16 141 18 187 3z m674 -3 c66 -28 75 -58 75 -258 l0 -178 -35 0 -35 0 0
166 c0 91 -4 174 -10 184 -14 25 -73 43 -118 35 -85 -14 -102 -56 -102 -245
l0 -140 -35 0 -35 0 0 220 0 220 30 0 c23 0 30 -5 30 -19 0 -27 15 -34 31 -14
35 41 139 56 204 29z m528 4 c49 0 57 -3 57 -19 0 -21 -19 -31 -57 -31 -20 0
-24 -3 -17 -17 16 -37 16 -110 0 -142 -22 -41 -82 -71 -145 -71 -55 0 -81 -17
-81 -55 0 -28 21 -35 118 -35 127 0 180 -43 169 -137 -9 -86 -89 -133 -224
-133 -82 0 -126 15 -163 54 -46 50 -24 143 40 169 28 12 28 12 9 36 -25 31
-24 54 5 88 24 28 24 30 6 41 -56 35 -67 157 -19 208 41 45 75 55 164 49 44
-3 106 -5 138 -5z m659 -19 c49 -34 76 -78 89 -144 23 -113 -21 -226 -103
-266 -49 -23 -128 -28 -175 -10 -91 34 -143 151 -123 275 19 118 93 178 211
172 50 -3 75 -9 101 -27z m974 7 c-3 -13 -6 -28 -6 -35 0 -7 -13 -9 -37 -6
-29 4 -46 -1 -73 -19 -60 -40 -70 -74 -70 -230 l0 -138 -35 0 -35 0 0 220 0
220 30 0 c27 0 30 -3 30 -30 0 -34 11 -38 31 -13 28 33 74 53 123 53 45 0 48
-1 42 -22z m-3506 -158 c0 -155 2 -172 19 -189 46 -46 143 -34 185 22 19 25
21 44 24 183 l4 154 34 0 34 0 0 -220 0 -220 -29 0 c-23 0 -30 5 -35 26 l-7
27 -22 -20 c-37 -34 -63 -43 -124 -43 -65 0 -110 22 -140 67 -15 23 -19 54
-21 205 l-4 178 41 0 41 0 0 -170z m910 -50 l0 -220 -35 0 -35 0 0 220 0 220
35 0 35 0 0 -220z m1900 54 c0 -91 4 -174 10 -184 24 -45 139 -49 179 -6 33
35 41 79 41 223 l0 133 35 0 35 0 0 -220 0 -220 -29 0 c-23 0 -30 5 -35 26
l-7 27 -22 -21 c-52 -48 -160 -58 -218 -19 -57 38 -63 63 -67 255 l-4 172 41
0 41 0 0 -166z m-2860 -879 l0 -315 -35 0 -35 0 0 315 0 315 35 0 35 0 0 -315z
m-2030 175 l0 -50 65 0 c63 0 65 -1 65 -25 0 -24 -2 -25 -65 -25 l-65 0 0
-150 c0 -139 1 -151 21 -171 18 -18 29 -20 65 -15 43 6 44 5 44 -23 0 -33 -14
-41 -75 -41 -110 0 -129 33 -133 243 l-4 157 -29 0 c-42 0 -39 32 4 48 27 10
35 20 45 57 10 38 16 45 37 45 23 0 25 -3 25 -50z m2720 0 l0 -50 65 0 c63 0
65 -1 65 -25 0 -24 -2 -25 -65 -25 l-65 0 0 -150 c0 -139 1 -151 21 -171 18
-18 29 -20 65 -15 43 6 44 5 44 -23 0 -33 -14 -41 -75 -41 -110 0 -129 33
-133 243 l-4 157 -29 0 c-42 0 -39 32 4 48 27 10 35 20 45 57 10 38 16 45 37
45 23 0 25 -3 25 -50z m-2244 -65 c50 -30 79 -84 89 -167 l7 -58 -156 0 c-150
0 -156 -1 -156 -20 0 -35 26 -85 53 -103 40 -26 97 -31 166 -13 34 9 65 16 67
16 3 0 4 -14 2 -32 -2 -26 -9 -34 -38 -44 -44 -16 -159 -18 -197 -3 -39 14
-101 77 -112 113 -29 93 -16 206 30 264 57 74 164 95 245 47z m517 -13 c30
-29 33 -30 44 -13 29 46 139 66 208 37 60 -26 70 -57 73 -258 l4 -178 -41 0
-41 0 0 169 c0 146 -2 172 -17 190 -39 48 -145 31 -173 -27 -9 -17 -15 -82
-18 -179 l-4 -153 -33 0 -34 0 -3 176 c-3 162 -5 177 -23 190 -31 23 -64 28
-107 15 -63 -19 -78 -62 -78 -238 l0 -143 -35 0 -35 0 0 220 0 220 30 0 c23 0
30 -5 30 -19 0 -23 16 -36 25 -20 21 32 71 50 132 47 55 -3 67 -8 96 -36z
m745 24 c38 -20 68 -55 88 -101 22 -54 22 -176 -1 -232 -19 -47 -72 -99 -111
-109 -46 -12 -129 1 -162 25 l-32 22 0 -120 0 -121 -35 0 -35 0 0 320 0 320
30 0 c23 0 30 -5 30 -19 0 -23 16 -36 25 -20 28 44 146 65 203 35z m709 -12
c44 -33 52 -72 52 -256 l1 -168 -29 0 c-25 0 -31 5 -36 30 l-7 31 -26 -27
c-35 -34 -62 -44 -123 -44 -94 0 -139 45 -139 138 0 41 5 55 28 80 35 38 114
62 200 62 l64 0 -7 38 c-14 74 -64 95 -161 67 -60 -17 -73 -13 -74 27 0 46
201 64 257 22z m731 12 c36 -19 78 -65 91 -99 6 -16 11 -53 11 -83 l0 -54
-150 0 c-144 0 -150 -1 -150 -20 0 -35 26 -85 53 -103 40 -26 97 -31 166 -13
34 9 65 16 67 16 3 0 4 -14 2 -32 -2 -26 -9 -34 -38 -44 -44 -16 -159 -18
-197 -3 -39 14 -101 77 -112 113 -29 93 -16 206 30 264 51 66 159 93 227 58z
m474 -4 c25 -10 26 -13 16 -42 -6 -19 -15 -29 -24 -26 -73 28 -160 30 -191 4
-7 -6 -13 -21 -13 -34 0 -28 34 -52 120 -84 82 -31 120 -66 127 -116 12 -90
-55 -143 -180 -144 -37 0 -83 7 -102 14 -30 13 -35 20 -35 47 0 26 3 30 18 24
9 -4 44 -12 77 -17 81 -14 142 2 151 39 12 46 0 55 -149 123 -72 33 -97 64
-97 118 0 36 33 80 74 98 36 16 165 14 208 -4z"/>
<path d="M26081 27098 c-44 -24 -63 -61 -69 -136 -8 -124 31 -187 117 -187 89
0 120 34 128 140 5 75 -14 142 -48 167 -33 25 -97 33 -128 16z"/>
<path d="M22621 27097 c-30 -15 -58 -53 -67 -89 l-6 -28 117 0 117 0 -7 33
c-17 82 -86 120 -154 84z"/>
<path d="M23300 27093 c-47 -24 -70 -73 -70 -148 0 -87 31 -145 88 -165 37
-13 47 -13 84 0 61 22 82 57 86 143 6 117 -29 173 -115 183 -25 3 -50 -1 -73
-13z"/>
<path d="M26800 27093 c-54 -28 -72 -73 -67 -166 4 -93 23 -125 85 -147 37
-13 47 -13 84 0 61 22 82 57 86 143 6 117 -29 173 -115 183 -25 3 -50 -1 -73
-13z"/>
<path d="M27810 27093 c-54 -28 -72 -73 -67 -166 4 -93 23 -125 85 -147 37
-13 47 -13 84 0 61 22 82 57 86 143 6 117 -29 173 -115 183 -25 3 -50 -1 -73
-13z"/>
<path d="M30255 26773 c-130 -47 -193 -141 -237 -353 -25 -123 -36 -542 -19
-712 29 -275 92 -413 218 -474 77 -39 193 -41 265 -6 168 82 238 313 238 776
-1 444 -73 678 -235 756 -62 30 -166 36 -230 13z"/>
<path d="M27191 26178 c-44 -24 -63 -61 -69 -136 -8 -124 31 -187 117 -187 89
0 120 34 128 140 5 75 -14 142 -48 167 -33 25 -97 33 -128 16z"/>
<path d="M24020 26173 c-47 -24 -70 -73 -70 -148 0 -87 31 -145 88 -165 37
-13 47 -13 84 0 61 22 82 57 86 143 6 117 -29 173 -115 183 -25 3 -50 -1 -73
-13z"/>
<path d="M25800 26173 c-54 -28 -72 -73 -67 -166 4 -93 23 -125 85 -147 37
-13 47 -13 84 0 61 22 82 57 86 143 6 117 -29 173 -115 183 -25 3 -50 -1 -73
-13z"/>
<path d="M26721 26177 c-30 -15 -58 -53 -67 -89 l-6 -28 117 0 118 0 -7 32
c-16 82 -87 120 -155 85z"/>
<path d="M21620 25263 c-47 -24 -70 -73 -70 -148 0 -87 31 -145 88 -165 37
-13 47 -13 84 0 61 22 82 57 86 143 6 117 -29 173 -115 183 -25 3 -50 -1 -73
-13z"/>
<path d="M22631 25267 c-30 -15 -58 -53 -67 -89 l-6 -28 117 0 117 0 -7 33
c-17 82 -86 120 -154 84z"/>
<path d="M25319 25279 c-49 -18 -66 -107 -29 -146 38 -41 126 -41 155 0 15 22
20 82 9 112 -14 36 -82 54 -135 34z"/>
<path d="M25283 24890 c-51 -21 -65 -86 -28 -123 37 -38 176 -32 225 10 34 28
41 81 14 104 -19 16 -179 23 -211 9z"/>
<path d="M26020 25263 c-54 -28 -72 -73 -67 -166 4 -93 23 -125 85 -147 37
-13 47 -13 84 0 61 22 82 57 86 143 6 117 -29 173 -115 183 -25 3 -50 -1 -73
-13z"/>
<path d="M21911 24347 c-30 -15 -58 -53 -67 -89 l-6 -28 117 0 117 0 -7 33
c-17 82 -86 120 -154 84z"/>
<path d="M23185 24352 c-58 -19 -84 -67 -85 -157 0 -101 33 -159 100 -170 89
-15 150 51 150 165 0 121 -73 192 -165 162z"/>
<path d="M23895 24180 c-46 -6 -64 -14 -82 -34 -60 -70 6 -143 105 -117 55 15
75 41 80 106 5 63 12 59 -103 45z"/>
<path d="M24631 24347 c-30 -15 -58 -53 -67 -89 l-6 -28 117 0 118 0 -7 32
c-16 82 -87 120 -155 85z"/>
<path d="M19475 19706 c-27 -13 -64 -39 -82 -57 -32 -35 -87 -129 -79 -137 3
-2 77 8 165 23 l160 28 3 36 3 36 67 10 c37 5 70 13 73 16 8 9 -42 43 -84 57
-60 21 -170 15 -226 -12z"/>
</g>
</svg>
